{
  "project_info": {
    "project_number": "136117699122",
    "firebase_url": "https://technical-test-52ab1.firebaseio.com",
    "project_id": "technical-test-52ab1",
    "storage_bucket": "technical-test-52ab1.appspot.com"
  },
  "client": [
    {
      "client_info": {
        "mobilesdk_app_id": "1:136117699122:android:7400a15801cac9d175f22b",
        "android_client_info": {
          "package_name": "com.troncodroide.app.mycv"
        }
      },
      "oauth_client": [
        {
          "client_id": "136117699122-rboids8k8pkbdc4ddp5aibh3js9p2srt.apps.googleusercontent.com",
          "client_type": 1,
          "android_info": {
            "package_name": "com.troncodroide.app.mycv",
            "certificate_hash": "408b6988de408e4f3cb45ba10b06b5da02a880c7"
          }
        },
        {
          "client_id": "136117699122-g4jbidugf9fgf4v9351v9kf2bjtvilqi.apps.googleusercontent.com",
          "client_type": 3
        }
      ],
      "api_key": [
        {
          "current_key": "AIzaSyBtSXgSTf2kdBTu3BwY10HjvNQaW_9YxEo"
        }
      ],
      "services": {
        "appinvite_service": {
          "other_platform_oauth_client": [
            {
              "client_id": "136117699122-g4jbidugf9fgf4v9351v9kf2bjtvilqi.apps.googleusercontent.com",
              "client_type": 3
            }
          ]
        }
      }
    }
  ],
  "configuration_version": "1"
}